// This file is generated automatically. All manually added changes will be removed when running the Converter.
// Map 003-2: Tulimshar Guild  warps
003-2,32,41,0	warp	#003-2_32_41	0,0,003-1,46,73
003-2,35,41,0	warp	#003-2_35_41	0,0,003-1,49,73
003-2,38,41,0	warp	#003-2_38_41	0,0,003-1,52,73
003-2,42,33,0	warp	#003-2_42_33	0,0,003-1,51,66
