// This file is generated automatically. All manually added changes will be removed when running the Converter.
// Map 001-5: Contributor's Cave mobs
001-5,49,49,29,29	monster	Blob	1008,2,35000,60000
001-5,53,50,25,29	monster	Snake	1122,1,35000,120000
001-5,54,51,25,29	monster	Night Scorpion	1077,1,35000,150000
001-5,51,49,29,29	monster	Stray Little Blub	1007,3,35000,180000
