// This file is generated automatically. All manually added changes will be removed when running the Converter.
// Map 003-0-1: The Magic Guild warps
003-0-1,49,52,0	warp	#003-0-1_49_52	3,0,003-1,51,36
